Lab 4
…
newBioClean %>% group_by(newBioClean$state) %>% count()

## # A tibble: 25 x 2
## # Groups:   newBioClean$state [25]
##    `newBioClean$state`     n
##    <fct>               <int>
##  1 Ariz.                   3
##  2 Ark.                    2
##  3 Australia               2
##  4 Calif.                  8
##  5 D.C.                    1
##  6 Fla.                    8
##  7 Ga.                     2
##  8 Ill.                    5
##  9 Iowa                   44
## 10 Kan.                    3
## # ... with 15 more rows
Part three: Joining data frames

The code below joins the offense and biography tables at an outer-left-join, and viewing the head will display hometowns, as well as cities and states individually.

#joining the offensive player data together with the player biography 
library(dplyr)
jointOffense<- left_join(offClean, newBioClean, by= "Name") #left joined the player biography onto the offense table

## Warning: Column `Name` joining factor and character vector, coercing into
## character vector

jointOffense<- jointOffense%>% group_by(Name)
head(jointOffense, 50)

## # A tibble: 50 x 19
## # Groups:   Name [4]
##    Name  Opponent_Oppone~ Receiving_REC Receiving_YDS Receiving_TD
##    <chr> <fct>                    <dbl>         <dbl>        <dbl>
##  1 Jone~ Iowa                         1            31            0
##  2 Jone~ Oklahoma                     9            66            0
##  3 Jone~ Akron                        6            39            0
##  4 Jone~ TCU                          3            23            0
##  5 Jone~ Oklahoma State               6            37            1
##  6 Jone~ West Virginia                1            32            1
##  7 Jone~ Texas Tech                   1             4            0
##  8 Jone~ Kansas                       4            31            0
##  9 Jone~ Baylor                       4            39            1
## 10 Jone~ Texas                        0             0            0
## # ... with 40 more rows, and 14 more variables: Rushing_ATT <dbl>,
## #   Rushing_YDS <dbl>, Rushing_TD <dbl>, `Passing_CMP-ATT` <dbl>,
## #   Passing_YDS <dbl>, Passing_TD <dbl>, Passing_INT <dbl>,
## #   Position <chr>, Weight <dbl>, Class <chr>, Hometown <chr>,
## #   totalHeighInInches <dbl>, city <fct>, state <fct>
…
